Write Line: 0, 1529512649.809619
Write Line: 1, 1529512649.911005
Write Line: 2, 1529512650.016127
Write Line: 3, 1529512650.121243
Write Line: 4, 1529512650.221396
Write Line: 5, 1529512650.324009
Write Line: 6, 1529512650.424372
Write Line: 7, 1529512650.524631
Write Line: 8, 1529512650.625010
Write Line: 9, 1529512650.728051
Write Line: 10, 1529512650.828350
Write Line: 11, 1529512650.930718
Write Line: 12, 1529512651.033571
Write Line: 13, 1529512651.133752
Write Line: 14, 1529512651.235158
Write Line: 15, 1529512651.340007
Write Line: 16, 1529512651.444267
Write Line: 17, 1529512651.544916
Write Line: 18, 1529512651.645201
Write Line: 19, 1529512651.745352
Write Line: 20, 1529512651.845612
Write Line: 21, 1529512651.945906
Write Line: 22, 1529512652.046118
Write Line: 23, 1529512652.146405
Write Line: 24, 1529512652.246667
